# data relevant to the application as a whole
%global = (
  name          => "transcoder",
  description   => "converts CSV files using rules defined in XML configuration file",
  version       => "0.1",
  trailing_opts => "[file ...]",
  usage_extra   => "",
  do_long_opts  => 1,
  preproc_extra => '',
  copyright     => <<END_COPYRIGHT
copyright 2017
END_COPYRIGHT
);

# descriptions of individual command-line arguments
# valid types are
#  flag                - no argument
#  var                 - required argument
#  var_optional        - optional argument
#  custom_flag         - no arg, and specify parseopt_code 
#  custom_var          - required arg, and specify parseopt_code 
#  custom_var_optional - optional arg, and specify parseopt_code 
@args = ( {
    name        => 'help',
    shortopt    => 'h',
    longopt     => 'help',
    type        => 'flag',
    required    => 0,
    main_code   => 'usage(argv[0]); exit(EXIT_HELP);',
    description => 'print this message and exit'
  },
  {
    name        => 'version',
    shortopt    => 'V',
    longopt     => 'version',
    type        => 'flag',
    required    => 0,
    main_code   => 'version(); exit(1);',
    description => 'print version info and exit'
  },
  {
    name          => 'verbose',
    shortopt      => 'v',
    longopt       => 'verbose',
    type          => 'custom_flag',
    required      => 0,
    parseopt_code => 'args->verbose++;',
    description   => 'print verbose messages during execution'
  },
  {
    name          => 'output',
    shortopt      => 'o',
    longopt       => 'output',
    type          => 'var',
    required      => 0,
    description   => 'csv file to transcoder' 
   },
   {
    name          => 'config',
    shortopt      => 'c',
    longopt       => 'config',
    type          => 'var',
    required      => 1,
    description   => 'XML configuration for transcoder' 
   }
);
